query,exists,name,claimed,phone_number,address,website,Friday_hours,Saturday_hours,Sunday_hours,Monday_hours,Tuesday_hours,Wednesday_hours,Thursday_hours
“Adobe”,True,,True,,,,,,,,,,
“Adobe Systems Software”,True,,True,+353 1 242 6700,"4-6, Riverwalk Drive, Citywest Business Campus, Cooldown Commons, Dublin 24, D24 DCW0, Ireland",http://www.adobe.com/ie/,,,,,,,
“Alibaba”,True,,True,,,,,,,,,,
“Alibaba Cloud”,True,,True,,,,,,,,,,
“Allegro”,True,,True,,,,,,,,,,
“Amazon”,True,,True,1800 3000 9009,,,,,,,,,
“Amazon Web Services”,False,,,,,,,,,,,,
“Amdocs”,True,,True,,,,,,,,,,
“Microsoft”,True,,True,1800 102 1100,,,,,,,,,
“Oracle”,True,,True,080678 62950,,,,,,,,,
“Infosys”,True,,True,,,,,,,,,,
“TCS”,True,,True,,,,,,,,,,
“Wipro”,True,,True,,,,,,,,,,
“Cloudera”,True,,True,,,,,,,,,,
“Coupa”,True,,True,,"Unit 1, 1st floor, Orwell Block, Salarpuria Sattva Knowledge City, Raidurg Village, HITEC City, Hyderabad, Telangana 500081",http://www.coupa.com/,,,,,,,
“Pegasystems”,True,,False,040 3055 5600,"Raheja Mindspace, SEZ, Building 12A, 11-14 th floors, Survey No - 64, Hitech City Rd, Madhapur, Hyderabad, Telangana 500081",https://www.pega.com/,,,,,,,
“UiPath”,True,,True,,,,,,,,,,
“Zycus”,True,,True,,,,,,,,,,
“YMGIT”,True,,False,099000 33998,"11B, Melange Towers Pathrika Nagar, Madhapur, Hyderabad, Telangana 500081",http://ymgit.com/,,,,,,,
